Exercise 03 - Practice Options Data (without answers)
…
Put the two CSVs data_practice_market_history and data_practice_option_history into the same folder as this .Rmd file and then read in the CSVs (using readr::read_csv()) into two data frames called df_market_history and df_option_history.

# When you use `read_csv()` put the following code as the second arugument `col_types = cols()` in order to avoid annoying warning messages.
df_market_history <- read_csv("data_practice_market_history.csv", col_types = cols())
df_option_history <- read_csv("data_practice_option_history.csv", col_types = cols())

Exploring df_market_history

Let’s look at all the underlyings that are represented in df_market_history on 8/16/2018. How many are there? Modify the query to see how many underlyings there are on 12/16/2013?

df_market_history %>% 
  filter(trade_date == as.Date("2013-08-16")) %>% 
  distinct(underlying)

## # A tibble: 100 x 1
##    underlying
##    <chr>     
##  1 SPY       
##  2 IWM       
##  3 XLF       
##  4 EEM       
##  5 QQQ       
##  6 FXI       
##  7 EFA       
##  8 GLD       
##  9 EWZ       
## 10 IYR       
## # ... with 90 more rows

The following query counts the number of underlyings that are accounted for on each trade date in df_market_history. About how many underlyings are there each day?

df_market_history %>% 
  group_by(trade_date) %>% 
  summarize(num_und = n_distinct(underlying)) %>% 
  arrange(trade_date)

## # A tibble: 106 x 2
##    trade_date num_und
##    <date>       <int>
##  1 2013-08-16     100
##  2 2013-08-19     100
##  3 2013-08-20      98
##  4 2013-08-21     100
##  5 2013-08-22     100
##  6 2013-08-23     100
##  7 2013-08-26     100
##  8 2013-08-27     100
##  9 2013-08-28     100
## 10 2013-08-29      99
## # ... with 96 more rows

The following query returns a list of all the trade dates that are represented in df_market_history. Add a use of top_n() with %>% in order to isolate the earliest date and the latest date.

# earliest is 8/16/2013
# latest is 1/16/2014
df_market_history %>% distinct(trade_date) 

## # A tibble: 106 x 1
##    trade_date
##    <date>    
##  1 2013-08-16
##  2 2013-08-19
##  3 2013-08-20
##  4 2013-08-21
##  5 2013-08-22
##  6 2013-08-23
##  7 2013-08-26
##  8 2013-08-27
##  9 2013-08-28
## 10 2013-08-29
## # ... with 96 more rows
…
The follow query counts the number of distinct expiration that can be found for each trade_date. What I want you to see is that for each trade_date, there is only one expiration in the data set. There 106 trade dates, so we could really just look at the entire dataframe by piping into View() to verify that num_exps = 1 for all trade dates. However, if there were thousands of trade dates this would be less feasible.

Modify this code so that you can check the min() and max() of num_exps. An extra 100 nerd points if you can do it without creating an intermediate dataframe - i.e. if you can do it with just pipes.

# The main point of the exercise is just to see that for each trade date there is only data for one expiration.
df_market_history %>% 
  group_by(trade_date) %>% 
  summarize(num_exps = n_distinct(expiration)) %>% 
  arrange(trade_date)

## # A tibble: 106 x 2
##    trade_date num_exps
##    <date>        <int>
##  1 2013-08-16        1
##  2 2013-08-19        1
##  3 2013-08-20        1
##  4 2013-08-21        1
##  5 2013-08-22        1
##  6 2013-08-23        1
##  7 2013-08-26        1
##  8 2013-08-27        1
##  9 2013-08-28        1
## 10 2013-08-29        1
## # ... with 96 more rows

The following query shows which expiration is given on each trade_date. Why is it OK that I use min() in the summarize function? Try using max() instead and see that you get the same answer. Pipe this query into View() and look at how exp_date changes as you move through time.

df_market_history %>% 
  group_by(trade_date) %>% 
  summarize(exp_date = min(expiration)) %>% 
  arrange(trade_date)

## # A tibble: 106 x 2
##    trade_date exp_date  
##    <date>     <date>    
##  1 2013-08-16 2013-09-21
##  2 2013-08-19 2013-09-21
##  3 2013-08-20 2013-09-21
##  4 2013-08-21 2013-09-21
##  5 2013-08-22 2013-09-21
##  6 2013-08-23 2013-09-21
##  7 2013-08-26 2013-09-21
##  8 2013-08-27 2013-09-21
##  9 2013-08-28 2013-09-21
## 10 2013-08-29 2013-09-21
## # ... with 96 more rows

The following query checks for OTM (out-of-the-money) calls in df_market_history - notice that we use implied_forward to determine moniness of options. Modify the query to check for ITM (in-the-money) calls. Did you find any? Create another query to check for OTM/ITM puts. Do you find any ITM puts?

df_market_history %>% filter(type == "call") %>% 
                      filter(strike > implied_forward)

## # A tibble: 55,855 x 18
##    trade_date option_symbol underlying type  expiration   d2x strike   upx
##    <date>     <chr>         <chr>      <chr> <date>     <int>  <dbl> <dbl>
##  1 2013-08-16 SPY130921C00… SPY        call  2013-09-21    24    166  166.
##  2 2013-08-16 SPY130921C00… SPY        call  2013-09-21    24    167  166.
##  3 2013-08-16 SPY130921C00… SPY        call  2013-09-21    24    168  166.
##  4 2013-08-16 SPY130921C00… SPY        call  2013-09-21    24    169  166.
##  5 2013-08-16 SPY130921C00… SPY        call  2013-09-21    24    170  166.
##  6 2013-08-16 SPY130921C00… SPY        call  2013-09-21    24    171  166.
##  7 2013-08-16 SPY130921C00… SPY        call  2013-09-21    24    172  166.
##  8 2013-08-16 SPY130921C00… SPY        call  2013-09-21    24    173  166.
##  9 2013-08-16 SPY130921C00… SPY        call  2013-09-21    24    174  166.
## 10 2013-08-16 SPY130921C00… SPY        call  2013-09-21    24    175  166.
## # ... with 55,845 more rows, and 10 more variables: bid <dbl>, ask <dbl>,
## #   mid <dbl>, volume <int>, open_interest <int>, implied_forward <dbl>,
## #   implied_vol <dbl>, delta <dbl>, atm_volatility <dbl>, swap_rate <dbl>
…
